1,1_1,1,Multiple_choice,"Which of the following activities do people spend nearly one-third of their time online doing?
",Shopping,,Not quite. Try again?
,,,,,Social media,True,Correct!
,,,,,Watching videos,,Not quite. Try again?
,,,,,,,
1,1_1,2,Multiple_choice,"True or false: Europeans actually have an average of more than one mobile line per person.
",True,True,Correct!
,,,,,False,,"Not quite. Europeans are so connected that they have an average of 1.25 mobile subscriptions per person! 
"
,,,,,,,
1,1_2,1,Multiple_choice,"True or false: In search advertising, you have the option to show ads only in certain locations.",True,True,"Correct!
"
,,,,,False,,Not quite. Search advertising allows you to focus on specific areas where you’ll reach the most customers.
,,,,,,,
1,1_2,2,Multiple_choice,"Which of the following is not a major factor you need to consider when planning to get online?
",How long you’ve been in business,True,Correct!
,,,,,Technology,,Not quite. Technology is important. Try again?
,,,,,Cost,,Not quite. Technology is important. Try again?
,,,,,Scope,,Not quite. Technology is important. Try again?
,,,,,,,
2,2_1,1,Multiple_choice,Which is the most important place to start when your business “goes digital”?,Setting up e-commerce,,"Not quite. You might set up an e-commerce website immediately ... or it might not be what your business needs, at least for now."
,,,,,Creating social media pages,,"Not quite. Social media might be an important part of your digital
plan, but it depends on the goals you want to achieve."
,,,,,Installing analytics software,,"Not quite. Setting up analytics is important so you can measure
and improve, but you need to determine what your goals are to get the most  out of it."
,,,,,"Determining your business goals, then developing a
plan to help you achieve them",True,"Correct! Your digital strategy may include some or all of the choices listed, but this will depend on your business goals."
,,,,,,,
2,2_1,2,Multiple_choice,True or false: You don’t necessarily need a website to get digital benefits for your business.,True,True,"Correct! Your digital presence can be as simple as
a listing on a local directory or a social media profile."
,,,,,False,,Not quite. Websites are just one of a number of options for establishing a digital presence.
,,,,,,,
2,2_2,1,Multiple_choice,Which of the following is not a place for customers to find you online?,A website,,Not quite. A website is a great way for customers to find you online.
,,,,,A mobile app,,Not quite. A mobile app is a great way for customers to find you online.
,,,,,An analytics report,True,Correct! An analytics report is something you’d look at to see how you’re doing online. It’s not a place where you can be found.
,,,,,An Instagram page,,Not quite. Social media is a great way for customers to find you online.
,,,,,,,
2,2_2,2,Multiple_choice,The most important thing as you begin to plan your website is to ...,Set up e­-commerce,,"Not quite. You may end up needing e­-commerce to achieve your goals, but your first step is to sort out what you want people to do on your website."
,,,,,Think about what you want people to do there,True,"Correct! You may set up e-­commerce and start advertising soon, but before that, you need to 
sort out what you want people to do on your website so you can formulate a plan."
,,,,,Advertise online,,"Not quite. You may end up using advertising to achieve your goals ... but your first step is to sort 
out what you want people to do on your website."
,,,,,,,
2,2_3,1,Multiple_choice,Which option below is not a way to attract more visitors to your website?,Search engine optimisation,,Not quite. Search engine optimisation can help attract visitors to your website.
,,,,,Web analytics,True,"Correct! Web analytics is important for tracking performance and measuring success, but it is not actually a way to attract visitors."
,,,,,Paid advertising,,Not quite. Paid advertising can help attract visitors to your website.
,,,,,Email marketing,,Not quite. Email marketing can help attract visitors to your website.
,,,,,,,
2,2_3,2,Multiple_choice,Showing image ads to people as they read news websites is an example of:,Search engine marketing,,Not quite. Search engine marketing involves showing adverts on search engines.
,,,,,Display advertising,True,Correct!
,,,,,Search engine optimisation,,Not quite. Search engine optimisation involves improving your website to make it more relevant to people who are searching for products like yours.
,,,,,,,
2,2_3,3,Multiple_choice,True or false: Email marketing is the same thing as “spam” email.,True,,"Not quite. If you email coupons to previous customers, for example, many of those people may find your email valuable."
,,,,,False,True,"Correct! If you email coupons to previous customers, for example, many of those people may find your email valuable."
,,,,,,,
2,2_4,1,Multiple_choice,Which considerations come into play when creating a digital marketing plan?,Tracking and analysis,,"Not quite. Tracking and analysis do come into play, but there’s more.

"
,,,,,Setting achievable goals,,"Not quite. Realistic, achievable goals do come into play, but there’s more."
,,,,,Staying flexible,,"It’s definitely important to stay flexible with any digital plans, but there’s more."
,,,,,All of the above,True,Correct! All these considerations come into play when creating a digital marketing plan.
,,,,,,,
2,2_4,2,Multiple_choice,True or false: Your digital plan should be flexible enough to allow you to adapt to changes in the digital world.,True,True,"Correct! On the Internet, nothing stays the same for long, so it’s important to allow for changes so that you don’t have to scrap your plan and start over."
,,,,,False,,"Not quite. On the Internet, nothing stays the same for long, so it’s important to allow for changes so that you don’t have to scrap your plan and start over."
,,,,,,,
2,2_4,3,Multiple_choice,True or false: Analytics is optional for measuring progress against your digital plan.,True,,"Not quite. Without analytics, it’s hard to know what’s working and what isn’t, and your plan may not work as well as you’d hoped."
,,,,,False,True,"Correct! Analytics helps you understand what’s working, what isn’t and how you can improve."
,,,,,,,
3,3_1,1,Multiple_choice,"A mobile app is:
","Another name for a mobile website
",,"Not quite. A mobile app is different than a website. It’s a program installed on a smartphone or tablet.
"
,,,,,A program installed on a mobile device or tablet,True,"Correct! A mobile app is a program designed to run on smartphones, tablet computers and other mobile devices.
"
,,,,,Not a great option for a digital presence,,"Not quite. A mobile app, like your website, social media profiles and local business listing, can be a really effective part of your business’s digital presence.
"
,,,,,,,
3,3_1,2,Multiple_choice,"True or false: A website is a requirement for an effective digital strategy.
",True,,"Not quite. A website is often a business’s first online destination, but a digital strategy can also include directory listings or social media pages as the digital destination.
"
,,,,,False,True,Correct! A digital strategy can use assets like directory listings or social media pages as the digital destination.
,,,,,,,
3,3_1,3,Multiple_choice,True or false: Building a local digital presence is useful because it can help potential customers find your business online.,True,True,Correct!
,,,,,False,,Not quite.  Having a local digital presence means your business can be found online.
,,,,,,,
,,,,,,,
,,,,,,,
3,3_2,1,Multiple_choice,"Paying to rent space on a server is the online equivalent of:
",Paying your employees at the end of the month,,Not quite. It’s more similar to renting a physical space to open a shop.
,,,,,Sending a new employee on a training course,,Not quite. It’s more similar to renting a physical space to open a shop.
,,,,,Renting a physical space to open a shop,True,Correct!
,,,,,Paying a bookkeeper to keep your finances in order,,Not quite. It’s more similar to renting a physical space to open a shop.
,,,,,,,
3,3_2,2,Multiple_choice,What does the IP in “IP Address” stand for?,Internet Protocol,True,Correct!
,,,,,Intellectual Property,,Not quite. IP actually stands for Internet Protocol.
,,,,,Image Processing,,Not quite. IP actually stands for Internet Protocol.
,,,,,Investment Portfolio,,Not quite. IP actually stands for Internet Protocol.
,,,,,,,
3,3_3,1,Multiple_choice,"True or false: You can choose any domain name you want for your website.
",True,,"Not quite. You’ll need to make sure that someone else hasn’t already claimed a domain name before you register it for yourself.
"
,,,,,False,True,Correct!
,,,,,,,
3,3_3,2,Multiple_choice,Which of the following elements can appear on a website?,Text,,"This is true, but this isn’t the only element that can appear on a website."
,,,,,Images and videos,,"This is true, but this isn’t the only element that can appear on a website."
,,,,,Interactive elements such as forms,,"This is true, but this isn’t the only element that can appear on a website."
,,,,,All of the above,True,Correct!
,,,,,,,
3,3_4,1,Multiple_choice,"True or false: You should make sure your website’s writing style is very technical, to show off your expertise.",True,,"Not quite. Often, using “everyday” language that is easy for most people to understand is a better way to connect.
"
,,,,,False,True,Correct!
,,,,,,,
3,3_4,2,Multiple_choice,"Which type of website content would be the best option to help support your business goals?
",Videos,,"Not quite. Videos can be great content for certain kinds of websites, but may not be necessary for everyone.
"
,,,,,Contact information,,"Not quite. Contact information can be great content for certain kinds of websites, but may not be necessary for everyone."
,,,,,Testimonials,,"Not quite. Testimonials can be great content for certain kinds of websites, but may not be necessary for everyone.
"
,,,,,"It depends on what my own specific goals are
",True,"Correct! In order to know what types of content you should include on your website, you’ll have to map out your own goals.
"
,,,,,,,
3,3_5,1,Multiple_choice,"True or false: Website visitors shouldn’t have to scroll down to see important information.
",True,True,"Correct! If your visitors have to scroll to the bottom of a page to find something important, they’re less likely to find it.
"
,,,,,False,,"Not quite. If your visitors have to scroll to the bottom of a page to find information, they’re less likely to find it at all.
"
,,,,,,,
3,3_5,2,Multiple_choice,"Which of the following is not an example of good website usability?
",A clear and organised site structure,,"Not quite. A clear and organised site structure will help your visitors find what they’re looking for.
"
,,,,,Ensuring that your website visitors can search your website,,"Not quite. Making sure visitors can use search functionality to find what they’re looking for will help them achieve their goals quickly.
"
,,,,,Placing as much content as possible on a single page,True,"Correct! Stuffing too much content on a single page can make it difficult for visitors to find the information they are looking for.
"
,,,,,"Writing clear, understandable content for your intended audience",,"Not quite. Avoiding technical “jargon” usually helps to communicate your message more effectively.
"
,,,,,,,
3,3_6,1,Multiple_choice,"Which devices should you make sure your website functions well on?
",Desktops and laptops,,"Not quite. Desktops and laptops are just some of the devices from which people access websites.
"
,,,,,Smartphones,,"Not quite. Smartphones are just one of the devices from which people access websites.
"
,,,,,Tablets,,Not quite. Tablets are just one of the devices from which people access websites.
,,,,,All of the above,True,"Correct! Today’s visitors access websites from all kinds of devices, and you should make sure your website looks good and performs well on all of them.
"
,,,,,,,
3,3_6,2,Multiple_choice,"True or false: If you’re not a programmer, there’s nothing you can do to make your web pages load faster.
",True,,"Not quite. Even if you’re not a programmer, you can still make your pages faster by doing things like using smaller images and reusing content across multiple pages of your site.
"
,,,,,False,True,"Correct! Even if you’re not a programmer, you can still make your pages faster by doing things like using smaller images and reusing content across multiple pages of your site.
"
,,,,,,,
4,4_1,1,Multiple_choice,Which of the following is a benefit of using email marketing to grow your business?,"Keeping your brand top of mind to potential, current and inactive customers",,"Not quite. While that is a benefit, it isn’t the only one. Try again? "
,,,,,"Collecting relevant information about your customers 
",,"Not quite. While that is a benefit, it isn’t the only one. Try again? "
,,,,,"Requesting and receiving customer feedback
",,"Not quite. While that is a benefit, it isn’t the only one. Try again? "
,,,,,All of the above,True,"Correct! All of the above are benefits of an email marketing strategy. 
"
,,,,,,,
4,4_1,2,Multiple_choice,"True or false: A good email marketing programme provides all customers with the same, general information about a variety of products and services.
",True,,"Not quite. Email marketing contact lists should be grouped according to audience so that communication can be tailored to customer interest and relationship to your business. 
"
,,,,,False,True,"Correct! Email marketing contact lists should be grouped according to audience so that communication can be tailored to customer interest and relationship to your business. 
"
,,,,,,,
,,,,,,,
4,4_2,1,Multiple_choice,Which is NOT a common feature of email marketing solutions?,A contact database to organise and group your audiences,,"Not quite. This is a common feature in most email marketing tools. Try again?
"
,,,,,Email templates that you can customise to your brand,,"Not quite. This is a common feature in most email marketing tools. Try again?
"
,,,,,Pre-written content for each of your audience groups,True,"Correct! While email marketing software can place content into your template, it won’t write it for you.
"
,,,,,"Behaviour tracking for when recipients open emails and/or click on links
",,"Not quite. This is a common feature in most email marketing tools. Try again?
"
,,,,,,,
4,4_2,2,Multiple_choice,"True or false: Personalised content is the best approach for reaching your email marketing prospects. 
",True,True,Correct!
,,,,,False,,"Not quite. The more specifically you target your audience based on their needs and preferences, the more likely they will be to respond to your offers. 
"
,,,,,,,
,,,,,,,
4,4_3,1,Multiple_choice,"Which is NOT a recommended practice for your email content?
","Concise, persuasive and engaging content",,Not quite. This is a recommended practice for well-crafted marketing emails. Try again?
,,,,,Calls to action so customers click links to your website,,Not quite. This is a recommended practice for well-crafted marketing emails. Try again?
,,,,,Long articles full of details about your products,True,"Correct! Content should be concise, with links to more information on a business’s website if needed. 
"
,,,,,,,
4,4_3,2,Multiple_choice,"True or false: The longer your subject line is, the more likely your recipients will be to open the email. 
",True,,"Not quite. Your best bet is to keep subject lines short. 
"
,,,,,False,True,"Correct! Longer subject lines tend to result in lower open rates. 
"
,,,,,,,
4,4_4,1,Multiple_choice,"Which of the following are things you can evaluate with A/B testing in your email campaigns?
",What days of the week people prefer to receive emails,,"Not quite. That’s one thing you can test, but it’s not the only thing. "
,,,,,Which subject lines most appeal to customers,,"Not quite. That’s one thing you can test, but it’s not the only thing. "
,,,,,Whether photos in your email entice more people to click through to your website,,"Not quite. That’s one thing you can test, but it’s not the only thing."
,,,,,All of the above,True,Correct!
,,,,,,,
4,4_4,2,Multiple_choice,"True or false: The open rate measures the percentage of people who open your email within the first 10 minutes of receiving it. 
",True,,"Not quite. The open rate measures what percentage of people who receive your email open it – at any time.
"
,,,,,False,True,Correct!
,,,,,,,
5,5_1,1,Multiple_choice,A search engine is:,"A program that searches for and identifies items that correspond to specified keywords, used especially for finding websites
",True,"Correct! A search engine searches for and identifies items that correspond to specified keywords, used especially for finding websites.
"
,,,,,"A program that creates web pages, helping searchers learn about products and services on the Internet
",,"Not quite. Search engines do not create web pages.Try again?
"
,,,,,"A program used by websites to connect to people searching for products and services
",,"Not quite. Search engines are not used by websites.Try again?
"
,,,,,,,
5,5_1,2,Multiple_choice,"Which option below is a search engine?
",Yahoo!,,Not quite. Yahoo! is a popular search engine.
,,,,,Google,,Not quite. Google is a popular search engine.
,,,,,Baidu,,Not quite. Baidu is a Chinese search engine.
,,,,,Yandex,,Not quite. Yandex is a Russian search engine.
,,,,,Bing,,Not quite. Bing is a popular search engine.
,,,,,All of the above,True,Correct! All the options listed are search engines.
,,,,,,,
,,,,,,,
5,5_2,1,Multiple_choice,How do search engines find new web pages?,By crawling the web and finding links to other pages,True,Correct!
,,,,,By indexing,,"Not quite. Search engines index content after finding it (crawling).
"
,,,,,By ranking,,"Not quite. Search engines rank content in their index after finding it (crawling). 
"
,,,,,,,
5,5_2,2,Multiple_choice,"True or false: Search engines include every web page on the Internet.
",True,,"Not quite. Search engines collect as much unique information as possible, but they’re selective, too. If they find the same content repeated over and over, it’s likely that some pages will not be included in the index.
"
,,,,,False,True,"Correct! Search engines crawl and index as many pages as possible, but they’re selective, too.  If they find content that's already been indexed, there's little value in indexing another copy.
"
,,,,,,,
5,5_3,1,Multiple_choice,"A search engine “sees” this image: <http://www.example.com/image.jpg>
Can it understand the content of this image, without further description, such as an “alt” tag?",Yes ,,"Not quite. This image file is named “image.jpg”, which doesn’t offer any information about the contents of the image. You might also notice that this sample does not include alternative text – the alt tag – which can help search engines understand the image as well.
"
,,,,,No,True,"Correct! This image file is generically named “image.jpg” and lacks alternative text – the alt tag – which can help search engines understand the image.
"
,,,,,,,
5,5_3,2,Multiple_choice,"True or false: The title of a web page is an important piece of information that helps search engines index the page properly.
",True,True,"Correct! The title on the page helps search engines index it properly, so it shows up in relevant searches.
"
,,,,,False,,"Not quite. Making sure the title on the page describes the subject of the page exactly helps the search engine index it properly, so it shows up in relevant searches.
"
,,,,,,,
5,5_4,1,Multiple_choice,"The primary search engine results based on relevance are called:
","The sponsored results
",,Not quite. “Sponsored results” usually refers to advertising.
,,,,,The organic results,True,"Correct! Organic results are determined by relevance, and typically make up the primary area of the search results page.
"
,,,,,None of the above,,"Not quite. Organic results are determined by relevance, and typically make up the primary area of the search results page.
"
,,,,,,,
5,5_4,2,Multiple_choice,"True or false: Clicking on a website in the organic results does not incur a fee for the site.
",True,True,"Correct! There is no charge for clicking on a website in the organic results.
"
,,,,,False,,"Not quite. A click on a website in the organic results does not result in a charge for that site.
"
,,,,,,,
5,5_5,1,Multiple_choice,Search engines determine which ads to display based on:,The relevance of the keyword and ad to the search,,"Not quite. Relevancy is one factor used to determine which ads appear, but  it’s not the only one.Try again?
"
,,,,,The amount the advertiser is willing to pay for a click on an advert,,"Not quite. The bid amount is one factor used to determine which ads appear, but it’s not the only one. Try again?
"
,,,,,"The relevance of the keyword and ad to the search, and the amount the advertiser is willing to pay for a click on an advert",True,"Correct! Search engines use the relevancy and the bid amount to determine which ads can appear on a search results page.
"
,,,,,,,
5,5_5,2,Multiple_choice,"Your ad is displayed on a search engine results page 10 times in 2 hours with 0 clicks. Your bid is €2. How much will you pay for showing the ad?
", €20,,"Not quite. In a pay-per-click model, advertisers pay only for clicks on ads. Try again?
"
,,,,, €2,,"Not quite. In a pay-per-click model, advertisers pay only for clicks on ads. Try again?
"
,,,,, €200,,"Not quite. In a pay-per-click model, advertisers pay only for clicks on ads. Try again?
"
,,,,, €0,True,"Correct!  In a pay-per-click model, advertisers pay only for clicks on ads. 
"
,,,,,,,
,,,,,,,
5,5_6,1,Multiple_choice,"True or false: A website must sign up for Google Search Console before it appears in Google’s search results.
",True,,"Not quite. Your website may appear in Google’s search results, whether you set up Google Search Console or not.
"
,,,,,False,True,"Correct! Setting up Search Console can help you monitor and maintain your presence on Google.
"
,,,,,,,
5,5_6,2,Multiple_choice,True or false: You can’t use Search Console to see how competitors’ websites appear in Google Search.,True,True,"Correct! To see website reports, you must be able to verify your ownership of the website. 
"
,,,,,False,,"Not quite, this is true! Search Console only shows reports for websites that belong to you, proven by verification steps.
"
,,,,,,,
6,6_1,1,Multiple_choice,In what way do search engines rank sites?,How popular the site is,,"Not quite. Popularity is an important factor, but there are more. Try again?
"
,,,,,The keywords and code on a web page,,"Not quite. Keywords and code on web pages are both factors, but there are more. Try again?
"
,,,,,What other people and sites say about the site,,"Not quite. What other people and sites say about the site is a factor, but there are others. Try again?
"
,,,,,"All of the above, and more. There are over 200 factors that determine the ranking of a page",True,Correct!
,,,,,,,
6,6_1,2,Multiple_choice,"True or false: Your geographic location while making a search can affect results.
",True,True,Correct!
,,,,,False,,"Not quite.  A person’s location can affect search results.
"
,,,,,,,
6,6_2,1,Multiple_choice,"When are good times to revisit your SEO plan?
",When you launch a new product,,"Not quite. This is one factor, but there are more. Try again?"
,,,,,When you have a website redesign,,"Not quite. This is one factor, but there are more. Try again?"
,,,,,When you launch in a new market,,"Not quite. This is one factor, but there are more. Try again?"
,,,,,All of the above,True,Correct!
,,,,,,,
6,6_2,2,Multiple_choice,"Which of the following is not a factor you need to consider as you prioritise your SEO plan?
",How much time and money it will take,,Not quite; this is an important factor to consider.
,,,,,What your competition is doing,True,Correct!
,,,,,How much it will help your business,,Not quite; this is an important factor to consider.
,,,,,,,
,,,,,,,
6,6_3,1,Multiple_choice,What’s the first step in the SEO process?,Writing blog posts,,"Not quite. This is an SEO optimisation step, but not the first."
,,,,,Keyword research,True,Correct!
,,,,,Off-site optimisation,,"Not quite. This is an SEO optimisation step, but not the first."
,,,,,Determining ad budget,,"Not quite. This is an SEO optimisation step, but not the first."
,,,,,,,
6,6_3,2,Multiple_choice,True or false: SEO is a one-time effort.,True,,"Not quite. SEO efforts must be continual.
"
,,,,,False,True,Correct!
,,,,,,,
,,,,,,,
6,6_4,1,Multiple_choice,"True or false: People can use a wide range of words when describing your products.
",True,True,Correct!
,,,,,False,,"Not quite. There will always be variations in how people describe your products (singular, plural, using different nouns or adjectives).
"
,,,,,,,
6,6_4,2,Multiple_choice,"Name three important considerations when evaluating keywords for search engine optimisation.
","Frequency, execution, relevance",,"Not quite. Execution is not a consideration when evaluating keywords for search engine optimisation. Try again?
"
,,,,,"Frequency, competition, relevance",True,Correct!
,,,,,"Competition, cohesiveness, relevance",,"Not quite. Cohesiveness is not a consideration when evaluating keywords for search engine optimisation. Try again?
"
,,,,,"Relevance, cohesiveness, execution",,"Not quite. Cohesiveness and execution are not considerations when evaluating keywords for search engine optimisation. Try again?
"
,,,,,,,
6,6_5,1,Multiple_choice,"True or false: Analytics tools can track how many sales are made from visitors who discovered your business on a search engine.
",True,True,"Correct! Analytics tools can track sales from search engine results.
"
,,,,,False,,"Not quite. Analytics tools can track sales from search engine results.
"
,,,,,,,
6,6_5,2,Multiple_choice,"Your online business sells fresh fruits and vegetables. Which of the following is a meaningful goal?
","To increase the number of hits on your web pages
",,"Not quite. It doesn’t matter how much traffic your website gets if no one buys your fruit and veg. A more meaningful goal would be to increase sales.
"
,,,,,"To improve your search engine ranking for the term “fresh apple pie”
",,"Not quite. Visitors who arrive on your site looking for pie would be annoyed to find they have to make it themselves, since you only sell fresh apples. "
,,,,,To increase sales from organic search results,True,Correct! 
,,,,,,,
7,7_1,1,Multiple_choice,Which of these are on-page SEO factors?,"Title, headings, page copy
",True,Correct! 
,,,,,"Server location, meta description, meta keywords
",,Not quite. Try again?
,,,,,"Meta description, heading, links",,Not quite. Try again?
,,,,,,,
7,7_1,2,Multiple_choice,"True or false: Meta keywords have SEO value.
",True,,"Not quite.  Meta keywords are not used by search engines.
"
,,,,,False,True,Correct! 
,,,,,,,
7,7_2,1,Multiple_choice,True or false: Buying links to your website is the best way to improve your search engine visibility.,True,,"Not quite. Search engines prefer natural, quality links to useful content on your website.
"
,,,,,False,True,Correct! 
,,,,,,,
7,7_2,2,Multiple_choice,"True or false: Regularly adding relevant content to your website can improve your visibility on search engines.
",True,True,"Correct! Adding relevant content is a great way to improve your chances of appearing on search engine results pages.
"
,,,,,False,,"Not quite. Adding relevant content is a great way to improve your chances of appearing on search engine results pages.
"
,,,,,,,
7,7_3,1,Multiple_choice,"True or false: An SEO guideline is to have more than one language on a page.
",True,,"Not quite. To help search engines identify content, each web page should be limited to one language. Translated versions of the same content should be published on separate pages.
"
,,,,,False,True,"Correct! To help search engines identify content, each web page should be limited to one language.
"
,,,,,,,
7,7_3,2,Multiple_choice,"True or false: Automated translation services are the best way to translate your web pages for SEO benefit.
",True,,"Not quite. For the best results, have a human translate your web pages. 
"
,,,,,False,True,Correct!
,,,,,,,
8,8_1,1,Multiple_choice,"For most SEM campaigns, when would you pay for advertising?",When your ad appears on the search results page,,Not quite. You only pay when someone actually clicks on your ad.
,,,,,When someone clicks your ad,True,Correct!
,,,,,When someone clicks your ad and makes a purchase on your website,,"Not quite. You pay when a person clicks your ad, regardless of what she does on your website."
,,,,,,,
8,8_1,2,Multiple_choice,How is SEM different than traditional advertising?,"SEM broadcasts marketing messages to as many people as possible
",,"Not quite. SEM targets specific people, based on the terms they search for.
"
,,,,,SEM costs more,,"Not quite. SEM pricing depends on how much competition there is to display an ad. It can cost more – or far less – than traditional advertising.
"
,,,,,SEM targets people actively searching for relevant information,True,"Correct! SEM displays adverts to people actively looking for related products and services.
"
,,,,,,,
8,8_2,1,Multiple_choice,How do search engines determine which order paid advertisements appear in?,A secret algorithm,,"Not quite. Search engines use an auction system to determine ad placement.
"
,,,,,The number of “likes” a business has,,"Not quite. Search engines use an auction system to determine ad placement.
"
,,,,,An auction system,True,Correct! 
,,,,,,,
8,8_2,2,Multiple_choice,True or false: Your bid is the only factor that determines whether you win the auction.  ,True,,Not quite. The relevance of your ad also matters in search engine marketing.
,,,,,False,True,Correct!
,,,,,,,
8,8_3,1,Multiple_choice,What’s the definition of a “relevant” keyword?,A keyword that has become very popular in recent weeks,,"Not quite. A keyword that has got a lot of traffic recently may be a new opportunity for you, but only if the keyword describes your products or services.
"
,,,,,A keyword that describes a product or service that you offer,True,Correct!
,,,,,A keyword that lots of competitors are using for their SEM campaigns,,"Not quite. Although your competitors may be bidding on a certain term for their SEM campaigns, that’s not a guarantee that the keyword accurately describes your products or services."
,,,,,,,
8,8_3,2,Multiple_choice,"If a keyword appears to be expensive, does that mean you shouldn’t include it in your advertising campaign?
","Yes, because expensive keywords won’t be valuable enough to justify the investment
",,Not quite. Even expensive keywords can sometimes be great keywords – if they generate a strong return for your business.
,,,,,"No, because expensive keywords tend to work the best
",,"Not quite. Keywords may become expensive if other businesses are finding them valuable, but if the keyword isn’t generating a strong enough return for your business, you probably want to try a different keyword.
"
,,,,,Maybe. It depends on whether the keyword generates a strong return for your business,True,Correct!
,,,,,,,
,,,,,,,
8,8_4,1,Multiple_choice,"Which of the following is a call to action?
",Serving Liverpool Since 1988,,"Not quite. A call to action should tell the searcher what you want them to do.
"
,,,,,Book a Session Today!,True,Correct!
,,,,,Free Shipping on Large Orders,,"Not quite. A call to action should tell the searcher what you want them to do.
"
,,,,,,,
8,8_4,2,Multiple_choice,"True or false: A headline that is customised to a person’s search terms helps to attract more potential customers.
",True,True,Correct!
,,,,,False,,"Not quite. Customising your advert’s headline to match a person’s search will help you attract more potential customers, because searchers tend to click on adverts that closely match their search.
"
,,,,,,,
9,9_1,1,Multiple_choice,What are the benefits of a more relevant ad?,You can sometimes appear higher in search results without paying more,,"Not quite. While this is true, you can also pay less per click than your competitors."
,,,,,You can sometimes pay less per click than your competitors,,"Not quite. While this is true, you can also appear higher in search results.
"
,,,,, Both A and B,True,Correct!
,,,,,,,
9,9_1,2,Multiple_choice,"True or false: In each ad group, you can have multiple campaigns.",True,,"Not quite. Ad groups are a subset of campaigns, not the other way around.
"
,,,,,False,True,Correct!
,,,,,,,
9,9_2,1,Multiple_choice,"Which pieces of information can you get from a keyword research tool?
",Estimated traffic levels and suggested bid prices,True,Correct!
,,,,,Your competitors’ daily budget and bid prices,,"Not quite. These research tools will give you industry averages, but not information that is specific to any one business you’re competing with.
"
,,,,,Exact traffic levels and exact bid prices,,"Not quite. The data you will see are estimates, not exact numbers.

"
,,,,,,,
9,9_2,2,Multiple_choice,"You are using keyword research tools to find ideas for advertising your new, upscale hotel in Newcastle upon Tyne. You see the following suggestion: “cheap hostel newcastle”. Can you use it?
",Yes,True,"Correct! This was a trick question. You can use this suggestion and add negative keywords, to prevent your ads appearing on searches for “cheap” accommodation or “hostel”.
"
,,,,,No,,"Not quite. This was a trick question. You can use this suggestion – but for negative keywords, to prevent your ads appearing on searches for “cheap” accommodation or “hostel”.
"
,,,,,,,
9,9_3,1,Multiple_choice,"To change a broad match keyword into a phrase match keyword, you should use:",Square brackets,,Not quite. You would use quotation marks.
,,,,,Quotation marks,True,Correct!
,,,,,Italics,,Not quite. You would use quotation marks.
,,,,,,,
9,9_3,2,Multiple_choice,True or false: A search for lawn cutting Chelsea would trigger an ad for this keyword.,True,,"Not quite. This is an exact match keyword, so only a search for Chelsea lawn cutting would cause this ad to appear.
"
,,,,,False,True,Correct!
,,,,,,,
9,9_4,1,Multiple_choice,How is a “conversion” defined?,Any action I want visitors to complete when they reach my website,True,Correct!
,,,,,A successful e-commerce transaction,,"Not quite. While this is one example, a conversion can actually be anything you want a user to do when they reach your website.
"
,,,,,A contact form submission,,"Not quite. While this is one example, a conversion can actually be anything you want a user to do when they reach your website.
"
,,,,,,,
9,9_4,2,Multiple_choice,"True or false: To track conversions, I need to install some code on specific pages of my website.
",True,True,Correct!
,,,,,False,,"Not quite. In order to track conversions, you will need to install code on specific pages where the conversions occur.
"
,,,,,,,
10,10_1,1,Multiple_choice,"""Device type"" is an example of a ...",Dimension,True,Correct!
,,,,,Metric,,"Not quite. A metric is something you can count, so a device type, such as ""tablet"" or ""desktop,"" is a dimension."
,,,,,Conversion,,"Not quite. A conversion is something you want someone to do on your website, such as buy a product, request more information, or something else."
,,,,,,,
10,10_1,2,Multiple_choice,"True or false: Web analytics can tell me which of my marketing campaigns is working the most effectively.
",True,True,Correct!
,,,,,False,,"Not quite. In fact, web analytics can give you detailed data about how your campaigns perform.
"
,,,,,,,
10,10_2,1,Multiple_choice,"Which of the following best represents the idea of the “customer journey”?
","Awareness, engagement, conversion
",True,Correct!
,,,,,"Pageviews, Visits, Unique Visitors",,"Not quite. The customer journey describes the idea of someone becoming aware of your business, engaging with you over time and finally “converting”.
"
,,,,,,,
,,,,,"Keywords, Quality Score, Landing Page",,"Not quite. The customer journey describes the idea of someone becoming aware of your business, engaging with you over time and finally “converting”.
"
,,,,,,,
10,10_2,2,Multiple_choice,"True or false: Thinking about real-world business goals is a crucial part of getting value out of analytics.
",True,True,Correct!
,,,,,False,,"Not quite. It’s really important to think about measuring your own particular goals, because otherwise, your web analytics won’t be customised for your business.
"
,,,,,,,
10,10_3,1,Multiple_choice,Which of the following could be a “goal” on a website?,A completed purchase on an e-commerce website,,"That’s right, but the other choices could all be conversions too, depending on the website.
"
,,,,,An inquiry submission,,"That’s right, but the other choices could all be conversions too, depending on the website."
,,,,,Downloading a file,,"That’s right, but the other choices could all be conversions too, depending on the website."
,,,,,All of the above,True,Correct!
,,,,,,,
10,10_3,2,Multiple_choice,"True or false: It’s important to identify goals before worrying about the technical side of analytics.
",True,True,Correct!
,,,,,False,,"Not quite. While there is a little bit of code involved in getting analytics to work, unless you think about your goals, analytics won’t provide much value for you.
"
,,,,,,,
11,11_1,1,Multiple_choice,"Web analytics helps you measure traffic coming to your site from which of the following search engines?
",Google,,"It’s true that web analytics helps you measure traffic from Google, but you can also measure traffic from any other search engine.
"
,,,,,Yahoo!,,"It’s true that web analytics helps you measure traffic from Yahoo!, but you can also measure traffic from any other search engine.
"
,,,,,Bing,,"It’s true that web analytics helps you measure traffic from Bing, but you can also measure traffic from any other search engine.
"
,,,,,All of the above,True,Correct!
,,,,,,,
11,11_1,2,Multiple_choice,"True or false: Analytics can help you identify areas of your website that you can improve on in order to get more exposure to relevant searchers.
",True,True,Correct!
,,,,,False,,"Not quite. If you see that your traffic from certain keywords is declining, for instance, you might focus on ensuring that your web pages are as relevant as possible for those keywords.
"
,,,,,,,
11,11_2,1,Multiple_choice,"Can web analytics give you data about the adverts you’re using in your SEM campaigns? 
","No, web analytics  only provides data about keywords",,"Not quite. Web analytics does provide data about keywords, but it also provides data about your adverts.
"
,,,,,"Yes, it can show data such as which advert is most likely to lead to a conversion",True,Correct!
,,,,,Only for certain search engines,,Not quite. Any major web analytics tool can give you data about your adverts on any search engine.
,,,,,,,
11,11_2,2,Multiple_choice,True or false: Google Analytics can be linked with Google AdWords.,True,True,"Correct!  Google Analytics can be linked with Google AdWords.
"
,,,,,False,,Not quite. Google Analytics can be linked with Google AdWords.
,,,,,,,
11,11_3,1,Multiple_choice,"Why does segmentation help reveal important insights?
",It makes my analytics reports collect data faster.,,"Not quite. Segmentation doesn’t make your reports any faster, but it helps you break up your data so that you can analyse interesting “subsets” – or segments – of your data.
"
,,,,,"It takes an aggregate number, and breaks it into its component parts, to reveal what’s happening “under the surface”.
",True,Correct!
,,,,,"It helps me get a bigger sample size, so I can be more confident in my decisions.
",,Not quite. Segmentation breaks up your data so that you can analyse interesting “subsets” – or segments – of your data.
,,,,,Segmentation does not help reveal important insights.,,"Hmm, that’s not right. Segmentation helps you break up your data so that you can analyse interesting “subsets” – or segments – of your data.
"
,,,,,,,
11,11_3,2,Multiple_choice,"True or false: Using web analytics, you can segment data according to where your website visitors are located.
",True,True,Correct!
,,,,,False,,Not quite. You actually can do this!
,,,,,,,
12,12_1,1,Multiple_choice,Why is local online marketing important?,It’s less expensive than other forms of marketing.,,Not quite. Marketing costs depend on lots of things.
,,,,,It helps people nearby find you.,True,"Correct! Local connects you with the right customer, at the right time."
,,,,,It can help your business appear to customers all over the world.,,"Not quite. Customers all over the world may find your website, but local can connect you with your most likely customers: those nearby."
,,,,,,,
12,12_1,2,Multiple_choice,"Which of the following bits of information is crucial to helping local people find you?
",Your business phone number,,"Your phone number is super-important, but don’t forget to provide info such as your address and your hours."
,,,,,Your business address,,"Your address is super-important, but don’t forget to provide info such as your phone number and your hours."
,,,,,Your business hours,,"Your hours are super-important, but don’t forget to provide info such as your address and your phone number."
,,,,,All of the above,True,"
Correct!
"
,,,,,,,
12,12_1,3,Multiple_choice,"True or false: When creating a website for a local business, it’s more important for the site to look perfect on desktop computers than be optimised for mobile.
",True,,"Not quite. People are using mobiles more than ever so it’s crucial that your site works well there. 
"
,,,,,False,True,Correct! People are using mobiles more than ever so it’s crucial that your site works well there. 
,,,,,,,
12,12_2,1,Multiple_choice,What are the key pieces of info to include in your local business listings?,Your business plan,,"Not quite. For local listings, you don’t need to include your business plan. Instead, focus on your business name, address and telephone number.
"
,,,,,"Your business name, address and telephone number",True,"
Correct!
"
,,,,,All the types of products you offer,,"Not quite. For local listings, name, address and telephone number are the most crucial bits of info.
"
,,,,,,,
12,12_2,2,Multiple_choice,"True or false: When listing your business locally, you should choose just one listing site for your business profile.
",True,,Not quite. There are many ways potential customers can find you online. By creating listings in many places you improve your odds of being found.
,,,,,False,True,Correct! There are many ways potential customers can find you online. By creating listings in many places you improve the odds of being found.
,,,,,,,
13,13_1,1,Multiple_choice,Which of the following channels offers local advertising opportunities?,Search engines,,"Not quite.  Search engines do offer local advertising opportunities, but many other online channels do as well.
"
,,,,,Social networks,,"Not quite.  Social networks do offer local advertising opportunities, but many other online channels do as well.
"
,,,,,Directories and review sites,,"Not quite.  Directories and review sites do offer local advertising opportunities, but many other online channels do as well.
"
,,,,,All of the above,True,"
Correct!"
,,,,,,,
13,13_1,2,Multiple_choice,"True or false: Local ads don’t have any features that are different from any other digital ads.
",True,,"Not quite.  Local ads can have special features that take advantage of knowing that users are nearby.
"
,,,,,False,True,"
Correct!"
,,,,,,,
13,13_2,1,Multiple_choice,"How can you advertise a local business to an online customer who lives, works or is walking or driving nearby?
","You can’t target by area, so you need to set a global ad.",,"Not quite. While a nearby customer might see your globally targeted ad, a better approach is to focus specifically on local areas you want to target.
"
,,,,,Use paid search advertising to create locally targeted ads.,True,"Correct. Local paid advertising can engage customers in your area.
"
,,,,,Paint a sign for your shop window.,,"Not quite. Signage is useful, but only if the customer happens to walk past the shop. You should also engage with customers online.
"
,,,,,,,
13,13_2,2,Multiple_choice,Which capabilities might be useful on a mobile website?,A clickable phone number that starts a phone call,,"“Click to call” is a great idea, but what about maps, directions and phone-friendly design?
"
,,,,,"A map to the business, with the option to get turn-by-turn directions",,"Maps are a great idea, but what about “click-to-call” features and phone-friendly design?"
,,,,,Pages that are easy to read on a smartphone,,"Phone-friendly design is a great idea, but make sure you’re also including “click-to-call” options, maps and directions, as needed.
"
,,,,,All of the above,True,Correct!
,,,,,,,
13,13_3,1,Multiple_choice,Where should you start if your site does not display in local searches?,"Create multiple listings for my business, all at the same physical address.",,Not quite. You’ll want to create one business listing for each search engine
,,,,,Buy links and reviews.,,"Not quite. You’ll want to follow best practices for SEO and engage in “white hat”, ethical SEO  techniques"
,,,,,Make sure your local details appear on your website,True,"Correct! By including key business details on your website, like your address or service area, you can help search engines identify your geographic location
"
,,,,,,,
13,13_3,2,Multiple_choice,True or false: Businesses that are newer or less “established” will have a hard time being found online.,True,,"Not quite. It’s true that more “established” businesses may also have a more built-up online presence, but that doesn’t mean newer businesses (or businesses that are new to the online world) can’t also be found online
"
,,,,,False,True,Correct!
14,14_1,1,Multiple_choice,Which of the following is a valid reason to engage in social media efforts?,Gain exposure to new customers,,"Not quite. This is a good reason to engage in social media, but it’s not the only correct answer."
,,,,,Respond in a personable way to customer questions and comments,,"Not quite. This is a good reason to engage in social media, but it’s not the only correct answer.
"
,,,,,Build trust with customers,,"Not quite. This is a good reason to engage in social media, but it’s not the only correct answer."
,,,,,All of the above,True,Correct!
,,,,,,,
14,14_1,2,Multiple_choice,"True or false: Social media offers businesses a great way to listen to – and engage with – potential consumers.
",True,True,Correct! Virtually any kind of business can use social media in these ways.
,,,,,False,,Not quite. Virtually any kind of business can use social media in these ways.
,,,,,,,
14,14_1,3,Multiple_choice,What direction does communication flow on social media?,"One way: social media is about broadcasting a message.
",,"Not quite. On social media, people expect to have a two way conversation, not just receive one-way messages. 
"
,,,,,"Two ways: social media is about having conversations.
",True,Correct!
,,,,,,,
14,14_2,1,Multiple_choice,"Which of the following is not a type of social media network?
","Personal networks
",,"Not quite. This actually is a type of social media network.
"
,,,,,Email lists,True,"Correct! While important, email lists aren’t an interactive ‘network’ engaging users in the same way a social network allows for.
"
,,,,,Professional networks,,"Not quite. There are actually several professional social media networks.
"
,,,,,,,
14,14_2,2,Multiple_choice,"True or false: Smaller, industry or topic-specific social networks aren’t valuable opportunities because their audiences just aren’t big enough.
",True,,"Not quite. While these networks may have smaller audiences, they can be very valuable because you know what the people who use the network are interested in."
,,,,,False,True,"Correct! While these networks may have smaller audiences, they can be very valuable because you know what the people who use the network are interested in.
"
,,,,,,,
14,14_3,1,Multiple_choice,"Which of the following is a business goal you could accomplish with social media?
",Driving more foot traffic to a physical retail location,,"Not quite. You can certainly accomplish this with social media, but it’s not the only correct answer!
"
,,,,,Engaging with your existing customers,,"Not quite. You can certainly accomplish this with social media, but it’s not the only correct answer!
"
,,,,,Generating buzz about your business,,"Not quite. You can certainly accomplish this with social media, but it’s not the only correct answer!
"
,,,,,All of the above,True,Correct!
,,,,,,,
14,14_3,2,Multiple_choice,"True or false: The goals you set for yourself on social media will impact decisions like which social networks you join and the tone of voice you use when interacting on social media.
",True,True,"Correct! Almost every decision you make on social media will be impacted by the goals you’ve set for yourself.
"
,,,,,False,,"Not quite. The networks you choose to join, the tone of voice you use and much more will all be impacted by the goals you’re trying to reach.
"
,,,,,,,
14,14_4,1,Multiple_choice,"Why is it important to build a profile in the social networks you participate in?
",It can help people understand who you are and what you do,,"Not quite. This is an important benefit, but it’s not the only correct answer.
"
,,,,,It can often be a page that search engines might return in search results,,"Not quite. This is an important benefit, but it’s not the only correct answer.
"
,,,,,"It will help visitors see how active you’ve been in the social community
",,"Not quite. This is an important benefit, but it’s not the only correct answer.
"
,,,,,All of the above,True,Correct!
,,,,,,,
14,14_4,2,Multiple_choice,True or false: You should display your personal details on social networks when signing up for social networks for your business.,True,,"Not quite. Generally, you want to keep your personal and professional social media profiles separate."
,,,,,False,True,Correct!
,,,,,,,
15,15_1,1,Multiple_choice,Which of the following are important components of a social media plan?,"Focusing on what you’re going to post, but also why you’re posting",True,Correct!
,,,,,"Sharing lots of videos because your nephew says that’s really big these days
",,"Not quite. Videos can be useful if they’re tied to the specific goals you’re trying to achieve, but you should decide that for yourself.
"
,,,,,"Making sure to post during people’s lunch breaks
",,"Not quite. People may be using social media at any time of the day or week. Lunchtime might work well, but be sure to post regularly, throughout the week.
"
,,,,,"Hiring an outside consultant to help you
",,"Not quite. It’s true that a consultant could help you with your social media efforts. But it’s not a necessity.
"
,,,,,,,
15,15_1,2,Multiple_choice,True or false: Social media efforts usually work well when you manage them in your spare time. ,True,,"Not quite. You’re much more likely to find success if you commit to managing your social media efforts as a major part of your overall marketing plan.
"
,,,,,False,True,Correct!
,,,,,,,
15,15_1,3,Multiple_choice,"True or false: Social media management tools can help you go from having a plan on paper to having a plan in action. 
",True,True,Correct!
,,,,,False,,"Not quite. Tools can help you manage all of the necessary work much more efficiently.
"
,,,,,,,
15,15_2,1,Multiple_choice,Which of the following is a potential benefit of paid social media efforts?,"Building up your customer base
",True,"Correct! Paid efforts can be a fantastic way to reach many potential customers quickly.
"
,,,,,"Lowering your marketing costs
",,"Not quite. Paid efforts may actually add to your costs – you’re paying to play.
"
,,,,,"Becoming an online celebrity
",,"Not quite. Advertising on social media isn’t about becoming famous – it’s about finding new ways to reach potential customers.
"
,,,,,,,
15,15_2,2,Multiple_choice,"True or false: Paid social media tactics automatically target your most likely customers.
",True,,Not quite. Social media marketing will require you to know the type of customer you’re after.
,,,,,False,True,"Correct! Though extremely customisable, you’ll certainly need to target based upon demographics and interests and specify these details yourself.  
"
,,,,,,,
15,15_3,1,Multiple_choice,"What is one potential benefit of using web analytics with respect to social media?
",Tracking what happens when customers come to your website,True,"Correct! You want to learn not only how customers interact with you on social media, but what kind of activity those efforts inspire on your website."
,,,,,"Generating more comments on your posts
",,"Not quite. Web analytics helps you to see how your social efforts drive customers to your website, not how they interact with you on social media.
"
,,,,,Creating fewer passwords,,Not quite. Every social network will still likely need its own separate account.
,,,,,,,
15,15_3,2,Multiple_choice,"True or false: You have no choice but to log in to every social media site you participate in separately in order to track how you’re doing.
",True,,"Not quite. There are lots of tools out there that can help you manage and measure lots of social media sites all in one place.
"
,,,,,False,True,Correct! There are lots of tools out there that can help you manage and measure lots of social media sites all in one place.
,,,,,,,
15,15_4,1,Multiple_choice,Which of the following is a common pitfall when managing social media campaigns?,Wearing your efforts thin by posting and being present on too many networks,True,"Correct! Try not to do it all, but focus on the channels that make most sense given what your goals are.
"
,,,,,"Posting videos on YouTube
",,Not quite. There’s nothing wrong with posting and sharing great video content!
,,,,,Posting too many photos,,"Not quite. Assuming these are relevant, quality photos of interest to your target audience,  post as often as you like!
"
,,,,,,,
15,15_4,2,Multiple_choice,"True or false: There’s nothing wrong with spacing out your social media posts to months at a time.
",True,,"Not quite. Fresh content and regular posts are key on social media.
"
,,,,,False,True,Correct!  Your audience might lose interest if you don’t post often enough.
,,,,,,,
16,16_1,1,Multiple_choice,"Which of the following are tasks a person can accomplish on a mobile device? 
","Make a phone call
",,"Yes. But there’s more. You can make calls on mobile devices, but that’s not the only task."
,,,,,Check the weather,,"Yes. But there’s more. You can check the weather via the Internet or an app, but that’s not the only thing.
"
,,,,,Find the nearest pizza place,,"Yes. But there’s more. You can find restaurants or other points of interest on your mobile device, but you can do so much more.
"
,,,,,All of the above,True,"Correct! All these tasks can be accomplished using mobile devices.
"
,,,,,,,
16,16_1,2,Multiple_choice,"True or false: Time spent interacting with mobile devices is increasing.
",True,True,"Correct! The time a person spends on mobile devices has been increasing year over year.
"
,,,,,False,,"Not quite. Time spent on mobile devices increases each year.
"
,,,,,,,
16,16_2,1,Multiple_choice,"What elements will a search engine consider to decide if your site is mobile-friendly?
",Link or button size,,"Link or button size is a factor, but there are others. Try again?"
,,,,,Content optimised for the device,,"Content optimised for a device is a factor, but there are others. Try again?
"
,,,,,Readable font size,,"Readable font size is a factor, but there are others. Try again?
"
,,,,,All of the above,True,"Correct!
"
,,,,,,,
16,16_2,2,Multiple_choice,"True or false: When creating a website for a local business, it doesn’t matter if your site is mobile or not.",True,,"Not quite. A mobile user is often on the go and looking for instant answers. If your site isn’t mobile-friendly, your business may not be displayed in the relevant results."
,,,,,False,True,"Correct! Providing a solid mobile user experience can improve your search visibility.
"
,,,,,,,
16,16_3,1,Multiple_choice,"True or false: On a mobile device, apps are accessed via a browser.

",True,,"Not quite. Mobile websites are accessed via a browser, whereas apps are downloaded to a person’s device.
"
,,,,,False,True,"Correct! Mobile apps are downloaded to mobile devices rather than accessed via a browser.
"
,,,,,,,
16,16_3,2,Multiple_choice,"An independent cinema wants to create a mobile app to increase sales. Which of the following could an app do?
",Provide showtimes for upcoming films,,"That’s true, but an app could also provide promotions or discounts.
"
,,,,,Send promotions or discounts to previous customers,,"That’s true, but an app could also provide showtimes for upcoming films.
"
,,,,,Both,True,"Correct! A mobile app could do both of these, and much more."
,,,,,,,
17,17_1,1,Multiple_choice,"Which of the following are advertising methods you can use to target mobile users?
",Search,,"Not quite. You can target mobile users on search, but that’s not the only opportunity.
"
,,,,,Display,,"Not quite. You can target mobile users on search, but that’s not the only opportunity.
"
,,,,,Mobile apps,,"Not quite. You can target mobile users on search, but that’s not the only opportunity.
"
,,,,,All of the above,True,"Correct! All of these are opportunities for mobile advertising.
"
,,,,,,,
17,17_1,2,Multiple_choice,"True or false: You should concentrate on shorter keywords for mobile search advertising.
",True,True,Correct! Mobile users typically use shorter search terms since their typing ability is limited.
,,,,,False,,Not quite. Try again?
,,,,,,,
17,17_2,1,Multiple_choice,"Which of the following is crucial for success with mobile search ads?
","A large, complex website that offers loads of options to the user",,"Not quite. Try to help your visitors accomplish the specific task they’re focused on. Too many options may cause your visitors to leave your website.
"
,,,,,A great call to action that leads to a relevant landing page designed specifically for mobile users,True,"Correct! Mobile users love websites that offer these features.
"
,,,,,"Using the same ads for mobile users and desktop users
",,"Not quite. It’s a good idea to create ads that are specifically targeted just to mobile users.
"
,,,,,,,
17,17_2,2,Multiple_choice,True or false: All keywords will have more search volume on desktops than on mobile devices.,True,,"Not quite. Some keywords are actually searched for more frequently on mobile devices.
"
,,,,,False,True,"Correct! Some keywords may be searched for more often on mobile than on desktops.
"
,,,,,,,
17,17_3,1,Multiple_choice,Which of the following is a possible way to target your mobile ads on the Display Network?,To people on mobile websites about plumbing tips,,"This is correct, but it’s not the only option."
,,,,,To people who are using a “do it yourself” app for home improvement,,"This is correct, but it’s not the only option."
,,,,,To people who are interested in reviews about plumbing,,"This is correct, but it’s not the only option."
,,,,,All of the above,True,Correct! All of these are possible ways to target display ads on mobile.
,,,,,,,
17,17_3,2,Multiple_choice,"True or false: Targeting your ads inside apps is a lot more complicated than targeting websites.
",True,,Not quite. It´s easy to target apps based on users´ interests and other factors.
,,,,,False,True,Correct!
,,,,,,,
17,17_4,1,Multiple_choice,"Let’s say you own a plumbing company in London. When you run mobile social ads, what would be the best Facebook targeting option?
",Males between the ages of 18 and 25,,Not quite. You don’t want to leave out other genders or age ranges who might need plumbing services.
,,,,,People in London,,"Not quite. Your store is in London, but social media targeting allows you to be much more specific about your audience.
"
,,,,,People in London who have liked pages about plumbing,True,"Correct! You can target people in London where your store is based who have also expressed an interest in plumbing.
"
,,,,,,,
17,17_4,2,Multiple_choice,"True or false: Mobile social ads should be text based to communicate as much information about your business as possible.
",True,,"Not quite. Mobile devices have smaller screen sizes, which can make reading large blocks of text difficult.
"
,,,,,False,True,"Correct! Because of mobile’s smaller screen size, it’s best to have ads that are image based.
"
,,,,,,,
,,,,,,,
,,,,,,,
,,,,,,,
17,17_5,1,Multiple_choice,"You own a plumbing business and want to run videos that advertise your services on mobile devices. What type of video content would you want your ads to run alongside?
",Video tutorials on unclogging drains,True,"Correct! By targeting your video ads to video content about plumbing issues, you are targeting a highly relevant audience.
"
,,,,,Video showing a baby’s first steps,,"Not quite. Although this video may be adorable, users watching it aren’t necessarily interested in what you offer.
"
,,,,,Video tutorials on cooking desserts,,"Not quite. Although this video may be intriguing, users watching it aren’t necessarily interested in what you offer.
"
,,,,,,,
17,17_5,2,Multiple_choice,"True or false: Mobile video ads should tell people what a business owner wants them to do next.
",True,True,Correct! All video ads should contain a call to action to keep people engaged with your business.
,,,,,False,,"Not quite. All video ads should contain a call to action so people can be moved through the sales process.
"
,,,,,,,
18,18_1,1,Multiple_choice,True or false: Display advertising is only for big brands with big budgets.,True,,"Not quite. While big brands certainly use display advertising, it’s accessible to just about any size of budget.
"
,,,,,False,True,Correct!
,,,,,,,
18,18_1,2,Multiple_choice,"True or false: Display adverts appear after someone does a search.
",True,,Not quite. People see display adverts whilst they’re browsing a website – but not on a search results page.
,,,,,False,True,Correct!
,,,,,,,
18,18_2,1,Multiple_choice,"True or false: Display adverts can come in many more formats than search adverts.
",True,True,Correct!
,,,,,False,,"Not quite. While search adverts are usually text based, display adverts can include images, videos and other interactive material.
"
,,,,,,,
18,18_2,2,Multiple_choice,"Display advertising can help advertisers to:
",Reach potential customers by placing ads across millions of different websites,,"This is true, but it’s not the only correct response."
,,,,,Build awareness of their products and services early in the consumer journey,,"This is true, but it’s not the only correct response."
,,,,,"Connect with customers using images, video and even interactive elements",,"This is true, but it’s not the only correct response."
,,,,,"All of the above
",True,Correct!
,,,,,,,
18,18_3,1,Multiple_choice,"True or false: As an advertiser, you have control over where your display adverts are placed or who might see them.",True,True,"Correct! You can control the kinds of websites where your adverts will appear as well as define behaviours and attributes of specific Internet users you wish to target.
"
,,,,,False,,"Not quite. You can control the kinds of websites where your adverts will appear as well as define behaviours and attributes of specific Internet users you wish to target.
"
,,,,,,,
18,18_3,2,Multiple_choice,"What can be used to ensure that you’re getting the right message in front of the right audience with a display advertising campaign?
",A user’s physical location and the type of device they’re using,,"Not quite. This is true, but it’s not the only correct answer."
,,,,,"A choice of ad formats including banner adverts with images, text adverts, video adverts and rich media adverts",,"Not quite. This is true, but it’s not the only correct answer."
,,,,,Demographic and general interest information about different users,,"Not quite. This is true, but it’s not the only correct answer."
,,,,,"All of the above
",True,Correct!
,,,,,,,
19,19_1,1,Multiple_choice,"True or false: Display advertising can only support business goals such as branding and awareness.
",True,,"Not quite. While display advertising can support these “upper funnel” business goals, it can also be used to support other goals, like retention.
"
,,,,,False,True,Correct!
,,,,,,,
19,19_1,2,Multiple_choice,"Which of the following is an important component of ensuring display advertising campaigns support business objectives?
",Matching appropriate business goals to stages of a sales funnel,,"Not quite. This is an important component, but it’s not the only one."
,,,,,Identifying your competitive advantage and messaging for the audiences you’re targeting,,"Not quite. This is an important component, but it’s not the only one."
,,,,,"Getting your message in front of your audience enough times that they’ll recall you when they need your products or services
",,"Not quite. This is an important component, but it’s not the only one."
,,,,,All of the above,True,Correct!
,,,,,,,
19,19_2,1,Multiple_choice,"Which of the following is the most accurate analogy for an ad network?
",A marketplace,True,"Correct! Ad networks serve to connect businesses with website publishers.
"
,,,,,A type of display advertising campaign,,Not quite. Try again?
,,,,,A targeting option for advertisers,,Not quite. Try again?
,,,,,A payments system for online campaigns,,Not quite. Try again?
,,,,,,,
19,19_2,2,Multiple_choice,"True or false: Both businesses and publishers can gain access to one another by using advertising networks.
",True,True,Correct!
,,,,,False,,"Not quite. Advertising networks bring large groups of both publishers and advertisers together, giving each group access to the other.
"
,,,,,,,
19,19_3,1,Multiple_choice,"True or false: When using retargeting services, advertisers collect personal information such as names and emails.
",True,,"Not so. Advertisers aren’t targeting people by personally identifiable information. Instead, they should target groups of people that exhibit specific behaviours.
"
,,,,,False,True,Correct!
,,,,,,,
19,19_3,2,Multiple_choice,"What is a good example of a remarketing list you should use on your site?
","Someone who visited your lunch menu
",,"Not quite. This is one remarketing list you’ll want to create, but not the only one.
"
,,,,,"Someone who bought off your site
",,"Not quite. This is one remarketing list you’ll want to create, but not the only one.
"
,,,,,Someone who spent a lot of time on your site,,"Not quite. This is one remarketing list you’ll want to create, but not the only one.
"
,,,,,All of the above,True,Correct!
,,,,,,,
20,20_1,1,Multiple_choice,"How can you translate your content for other languages?
",Ask a friend,,"Not quite. Unless of course your friend is a great translator and native speaker of the target language. 
"
,,,,,"Hire a professional, native speaker to translate or write content",True,Correct!
,,,,,Use automatic translation software,,Not quite. Automated translation tools are rarely 100% accurate. 
,,,,,,,
20,20_1,2,Multiple_choice,"True or false: To sell internationally, you need to set up separate e-commerce systems for each country.
",True,,"Not quite. Many online shopping or e-commerce systems have the ability to sell products in multiple currencies and apply taxes.
"
,,,,,False,True,"Correct! Many online shopping or e-commerce systems have the ability to sell products in multiple currencies and apply taxes.
"
,,,,,,,
20,20_2,1,Multiple_choice,"Which tool helps you understand which countries could be a good opportunity for your business?
",Google Market Finder,True,Correct!
,,,,,Google AdSense,,Not quite. Try the Market Finder instead.
,,,,,Google Maps,,Not quite. Try the Market Finder instead.
,,,,,,,
20,20_2,2,Multiple_choice,"True or false: Analysing search volume can’t give you clues as to the level of demand for your products.
",True,,Not quite. This actually can be a good way to research new markets.
,,,,,False,True,Correct!
,,,,,,,
20,20_3,1,Multiple_choice,"What’s the best approach to translating and localising your content?
",Use translation software,,"Not quite. Translation software isn’t always 100% accurate, so you’ll need a native speaker to help localise your content."
,,,,,Ask a native speaker to write and review your content,True,Correct! A native speaker can identify and help refine cultural nuances and language.
,,,,,Don’t translate or localise – one language will fit all audiences,,Not quite. A translated and localised site provides your target audience with a better experience.
,,,,,All of the above,,Not quite. Localised and translated content can help your target audience discover you.
,,,,,,,
20,20_3,2,Multiple_choice,"True or false: If your website targets speakers of one language only – English, for example – you don’t need to localise the content.",True,,"Not quite. Even within a single language, you might want to localise content for cultural nuances. Think about the differences between American and British English, for example. A “lift” means something different, depending on where you’re from!"
,,,,,False,True,"Correct. Even languages like English can have localised differences from region to region. Think about the differences between American and British English, for example. A “lift” means something different, depending on where you’re from! 
"
,,,,,,,
20,20_4,1,Multiple_choice,Which of the following is a form of advertising primarily meant to target existing customers?,Search advertising,,Not quite. Try again?
,,,,,Social media advertising,,Not quite. Try again?
,,,,,Retargeting,True,Correct!
,,,,,,,
20,20_4,2,Multiple_choice,"
True or false: All you need to do to expand into a new international market is translate your keywords into the new language.
",True,,Not quite. Try again?
,,,,,False,True,Correct! You should also create a more thorough advertising plan when expanding into a new international market.
,,,,,,,
20,20_5,1,Multiple_choice,"What type of technology can help you communicate and market to mobile customers in new markets?
",Printed posters to place on walls and poles around your target regions,,"Not quite. Though this sounds like a great workout, you’ll be more likely to target and communicate with prospects and clients if you create a mobile-friendly website.
"
,,,,,A website or e-commerce solution that’s mobile-friendly,True,Correct!
,,,,,An email address for corresponding with your new potential customers,,"Not quite. While email is one form of communication, you’ll want to have a mobile-friendly website so customers and prospects can communicate with you."
,,,,,All of the above,,Not quite. Try again?
,,,,,,,
20,20_5,2,Multiple_choice,"True or false: Thanks to the Internet, you can now sell and ship any product or service anywhere in the world.",True,,"Not quite. Different governments have certain rules and regulations for doing business in their countries, so you should research local laws and requirements before expanding into a new market."
,,,,,False,True,Correct!
,,,,,,,
20,20_6,1,Multiple_choice,"Why would you want to research the preferred payment methods used by your target markets?
",To ensure customers have the ability to pay using their preferred methods,,Correct … but there’s more. Try again?
,,,,,To widen the possibilities and options for making a purchase,,Correct … but there’s more. Try again?
,,,,,So that you don’t miss a sales opportunity,,Correct … but there’s more. Try again?
,,,,,All of the above,True,"Correct. Offering a wide selection of payment methods can increase your sales and revenue. Take the time to research what payment methods are used by your customers so that when it’s time for your customer to press the buy button, they have the payment method they need available to them.
"
,,,,,,,
20,20_6,2,Multiple_choice,"True or false: As long as your e-commerce system can be translated, you can make international sales.",True,,"Not quite. Translation is a great start but you’ll want to make sure you’ve also covered items like address and phone number formats as well as payment methods.
"
,,,,,False,True,Correct!
,,,,,,,
20,20_7,1,Multiple_choice,Why would I want to research shipping companies? ,"Some cross-border shipping companies are more reliable and faster than other methods of shipping
",,"That’s true, but there’s more. Try again?"
,,,,,Shipping costs may vary from country to country,,"That’s true, but there’s more. Try again?"
,,,,,"Some companies that specialise in cross-border shipments provide additional services, such as duty collection and brokerage",,"That’s true, but there’s more. Try again?"
,,,,,All of the above,True,"Correct! Exploring your options can offer you choices in reliability and speed. While customs and excise tax might not always apply, using companies who can collect this for you will make cross-border shipping much easier.
"
,,,,,,,
20,20_7,2,Multiple_choice,"True or false: After I ship my product, my job is done. ",True,,"Not quite. Ensuring you’re available to your international customer after the product has shipped will build customer goodwill, and a chance at repeat sales. 
"
,,,,,False,True,"Correct! Ensuring you’re available to your international customer after the product has shipped will build customer goodwill, and a chance at repeat sales. 
"
,,,,,,,
21,21_1,1,Multiple_choice,"What factor has contributed most to the increase in online video consumption?
",Interest in video has increased.,,"Not quite. People have always been interested in watching videos, but technology made it difficult to do so. Try again?
"
,,,,,"Internet speed has improved.
",True,"Correct! The biggest factor is the spread of fast Internet connections. As technology improves, so does video consumption.
"
,,,,,"Advertisers have more resources to produce video.
",,"Not quite. The ability to produce video predates the ability to post it online. Try again?
"
,,,,,,,
21,21_1,2,Multiple_choice,"True or false: Video consumption and its viability as a marketing tool is expected to “plateau” soon. 
",True,,"Not quite. Video views online have seen explosive growth in recent years, and the medium is poised to be central to marketing. 
"
,,,,,False,True,"Correct! Video views online have seen explosive growth in recent years, and the medium is poised to be central to marketing. 
"
,,,,,,,
,,,,,,,
21,21_2,1,Multiple_choice,"True or false: Making videos is the only way to use video in your online strategy.
",True,,"Not quite. This is just one way to use video in your online strategy. You can also advertise on other people’s videos.
"
,,,,,False,True,Correct! 
,,,,,,,
21,21_2,2,Multiple_choice,"What type of advertising can you use with video?
","Show videos before other people’s videos
",,"Not quite. Showing videos before other people’s videos is just one way to advertise with video.
"
,,,,,"Text ads
",,"Not quite. Text ads are just one way to advertise with video.
"
,,,,,"Display ads
",,"Not quite. Display ads are just one way to advertise with video.
"
,,,,,"All of the above
",True,"Correct! There are several ways to align your advertising with your online goals in regards to video.
"
,,,,,,,
21,21_3,1,Multiple_choice,"True or false: The three factors that contribute most to a professional-looking video are steadiness, sound quality and lighting. 
",True,True,"Correct! These three factors are key to a professional-looking video.
"
,,,,,False,,"Not quite. While there are many factors to creating a great-looking video, these three can make your videos stand apart. 
"
,,,,,,,
21,21_3,2,Multiple_choice,"Which of the following resources can be utilised to cut costs on your video production budget?
","Mobiles with advanced features like a high-quality video camera
",,"Not quite. Mobiles are a great way to cut costs, but many other resources do as well.
"
,,,,,"How-to tutorials on editing videos
",,"Not quite. Following tutorials and editing footage yourself definitely helps cut costs, but there are other resources as well.
"
,,,,,"Hiring talent from your circle of friends
",,"Not quite. Utilising the talent of your friends and colleagues is a great way to cut costs, but there are other resources as well.
"
,,,,,"All of the above
",True,Correct!
,,,,,,,
21,21_4,1,Multiple_choice,"What is a key strategy for distributing your videos?
","Pick one primary place to upload your videos.
",,"Not quite. Using videos on all relevant digital tools is important for engaging your audience.
"
,,,,,"Share videos across all of your digital marketing tools, such as your website, social media profiles and email newsletter.
",True,"Correct! Videos should be promoted and shared across many different channels to encourage views.
"
,,,,,"Trust word of mouth to drive traffic to your videos.
",,"Not quite. There are lots of ways beyond word of mouth to increase your video audience.
"
,,,,,,,
21,21_4,2,Multiple_choice,"True or false: Once uploaded, a video should never be archived or removed.
",True,,"Not quite. You can archive or remove outdated videos.
"
,,,,,False,True,"Correct! Videos should be removed or archived if they are outdated.
"
,,,,,,,
21,21_5,1,Multiple_choice,"True or false: YouTube and Vimeo are examples of popular video sharing sites.
",True,True,"Correct! YouTube and Vimeo are popular video sharing sites.
"
,,,,,False,,Not quite. YouTube and Vimeo are popular video sharing sites.
,,,,,,,
21,21_5,2,Multiple_choice,"What factors should you NOT consider when advertising on video sites?
",Your own ability to produce videos,True,"Correct! You can successfully advertise on video sites without having to create your own video content.
"
,,,,,Whether video content is relevant and interesting to your target audience,,"Not quite. Relevance and audience interest is important to the success of your advertising. 
"
,,,,,How to include compelling calls-to-action in your ads,,"Not quite. Including compelling calls-to-action is important to the success of your advertising.
"
,,,,,,,
21,21_6,1,Multiple_choice,"True or false: You can use analytics to learn on which websites people watch your videos. 
",True,True,"Correct! Analytics will show you where people are watching your video.
"
,,,,,False,,"Not quite. Analytics will provide you with the video’s source.
"
,,,,,,,
21,21_6,2,Multiple_choice,"Which of these is NOT a common indicator for measuring video performance?
",Likes,,"Not quite. Liking a video is a common indicator for measuring video engagement.
"
,,,,,Opens,True,"Correct! “Opens” is a term typically used to measure the success of email marketing rather than video performance.
"
,,,,,Shares,,"Not quite. Sharing a video is a key factor for measuring engagement.
"
,,,,,Comments,,"Not quite. Commenting on a video is a common indicator for measuring engagement.
"
,,,,,,,
22,22_1,1,Multiple_choice,What is e-commerce?,"Image and text-based advertising across the Internet
",,"Not quite. While digital advertising can be a great way to drive qualified traffic to your website, e-commerce refers to something else."
,,,,,"Selling products and services over digital mediums, like the Internet
",True,Correct!
,,,,,Making videos about the products and services you offer,,"Not quite. While videos can be a valuable part of your online strategy, e-commerce refers to something else.
"
,,,,,All of the above,,"Not quite, there’s only one correct answer.
"
,,,,,,,
22,22_1,2,Multiple_choice,"True or false: You can only use e-commerce if you own a retail business.
",True,,"Not quite. Retail stores are just one type of business that can benefit from e-commerce.
"
,,,,,False,True,Correct!
,,,,,,,
22,22_2,1,Multiple_choice,"Which is a benefit of integrating e-commerce into your website?
","You can control the checkout experience
",,"Not quite. While this is true, it’s not the only benefit.
"
,,,,,"You can track customers all the way through a purchase
",,"Not quite. While this is true, it’s not the only benefit.
"
,,,,,"The customer experience is consistent on a single website
",,"Not quite. While this is true, it’s not the only benefit.
"
,,,,,"All of the above
",True,Correct!
,,,,,,,
22,22_2,2,Multiple_choice,"True or false: It’s impossible to sell online without a full e-commerce platform.
",True,,"Not quite. You can use a full e-commerce platform or other options like third-party payment processors.
"
,,,,,False,True,Correct!
,,,,,,,
23,23_1,1,Multiple_choice,"True or false: You can always optimise the e-commerce experience to make it smoother and easier.
",True,True,Correct!
,,,,,False,,"Not quite. The process of continual improvement is never finished.
"
,,,,,,,
23,23_1,2,Multiple_choice,"Which of the following e-commerce components can be optimised to provide a better user experience?
",Product pages,,"Not quite. While this is true, it’s not the only thing that can be optimised.
"
,,,,,Search capabilities,,"Not quite. While this is true, it’s not the only thing that can be optimised.
"
,,,,,Personalisation,,"Not quite. While this is true, it’s not the only thing that can be optimised.
"
,,,,,All of the above,True,Correct!
,,,,,,,
23,23_2,1,Multiple_choice,"True or false: It’s impossible to predict what online shoppers may be looking to purchase.
",True,,"Not quite. By using site visitor data, it’s possible to predict what products they may be interested in.
"
,,,,,False,True,Correct!
,,,,,,,
23,23_2,2,Multiple_choice,"Which of the following are good examples of product promotion and merchandising?
",Promoting your most popular products,,"Not quite. While this is a good example of product promotion and merchandising, it’s not the only one.
"
,,,,,Recommending products based on customer behaviour,,"Not quite. While this is a good example of product promotion and merchandising, it’s not the only one.
"
,,,,,Showcasing products that may be of shopper interest,,"Not quite. While this is a good example of product promotion and merchandising, it’s not the only one.
"
,,,,,All of the above,True,Correct!
,,,,,,,
23,23_3,1,Multiple_choice,"True or false: Product retargeting can help new people find your website.
",True,,"Not quite. Product retargeting is used to encourage return visits to your website, showing ads to people who’ve already been there.
"
,,,,,False,True,"Correct!  Product retargeting is used to encourage return visits to your website, showing ads to people who’ve already been there.
"
,,,,,,,
23,23_3,2,Multiple_choice,"Which of the following describes product retargeting in the correct order?
","Retargeting service generates and places ad > shopper interacts with product > code reports browsing activity > shopper sees ad featuring the product they’re interested in
",,Not quite. The process follows a specific order. Try again?
,,,,,Shopper interacts with product > code reports browsing activity > retargeting service generates and places ad > shopper sees ad featuring the product they were interested in,True,Correct!
,,,,,"Shopper sees ad featuring the product they were interested in > retargeting service generates and places ad > shopper interacts with product > code reports browsing activity
",,Not quite. The process follows a specific order. Try again?
,,,,,"Shopper interacts with product > shopper sees ad featuring the product they were interested in > retargeting service generates and places ad > code reports browsing activity
",,Not quite. The process follows a specific order. Try again?