1,Conducting Interviews
2,General Marketing Knowledge
3,Facebook Advertising Knowledge
4,LinkedIn Advertising Knowledge
5,SEA Knowledge
6,Display Advertising Knowledge
7,Affiliate Marketing Knowledge
8,Content Planning
9,Copywriting
10,SEO Knowledge
11,Social Media Channels
15,Google Analytics
16,Excel
17,Presentation Skills (Powerpoint or other visual materials)
18,Knowledge of CMS Tools
19,Budget Management
20,Drawing up briefings for internal or external colleagues
21,Knowledge of Email Marketing Tools
22,Knowledge of Email Marketing Segmentation
23,Photoshop
24,HTML
25,Event Management