1,The online opportunity,2 video's,"
The world has gone digital. Fear not - it’s your opportunity to take your business, career or creative aspirations to new heights. Learn the trends and what you can expect. 
",,x,,,,,,,,,,,,,,,,,,,,,,,
2,Your first steps in online success,4 video's,"
The web offers many ways to promote your business or yourself. Learn how all the digital channels work.
",,x,,,,,,,x,,,,,,,,,,,,,,,,
3,Build your web presence,4 video's,"
There’s more than one way to establish your home on the web. Understand your options and create an action plan to get online. ",,x,,,,,,,x,,,,,,,,,,,,x,x,,,
4,Connect through email,,"
Start growing your customer relationships while also converting new prospects through email marketing. 
",,x,,,,,,,x,,,,,,,,,,,,x,x,,,
5,Get started with search,,"
Discover how they work, why they’re important, how they’ll impact your business and why they are key to your online success.
",,x,,,x,x,,,,x,,,,,x,,,,,,,,,,
6,Get discovered with search,,"
When people search online for the things you sell, make sure you're being found. This is your complete introduction to search engine optimisation (SEO). 
",,x,,,x,x,,,,x,,,,,x,,,,,,,,,,
7,Make search work for you,,"
Now that you know about SEO, we’ll show you how to apply the principles to get your business noticed.
",,x,,,x,x,,,,x,,,,,x,,,,,,,,,,
8,Be noticed with search ads,,"
Want to know how to advertise to the very people searching for what you offer? Learn the basics of search engine marketing (SEM).
",,x,,,x,x,,,,x,,,,,x,,,,,,,,,,
9,Improve your search campaigns,,"
Now that you know the basics of paid search, see how to make the most of every pound you spend with smarter, more targeted ads.
",,x,,,x,x,,,,x,,,,,x,,,,,,,,,,
10,Get started with analytics,,"
We’ll show you how to slice and dice data to answer real business questions, and to measure how you’re doing online. 
",,x,,,,,,,,,,,,,x,,,,,,,,,,
11,Find success with analytics,,"
So you’ve got the basic concepts of analysing data. Now see how to apply the data to benefit your business.
",,x,,,,,,,,,,,,,x,,,,,,,,,,
12,Get noticed locally,,"
Whether you’re a bricks- and- mortar shop or a localised service, find ways to use the web to reach customers nearby.
",,x,,,,,,,,,,,,,,,,,,,,,,,
13,Help people nearby find you online,,"
When people are out and about they rely on mobile for what they need. Learn some ways to take advantage of that unique opportunity to attract new customers.
 ",,x,,,,,,,,,,,,,,,,,,,,,,,
14,Get noticed with social media,,"
There’s more to social media than liking baby photos and sharing dog pics. Discover all the cool ways you can use it for your business.
",,x,x,x,,,,x,,,x,x,x,x,,,,,,,,,,,
15,Deep dive into social media,,"
Now we’ll cover managing your social presence, dos and don’ts of different channels, advertising on social media, and measuring your performance.
",,x,x,x,,,,x,,,x,x,x,x,,,,,,,,,,,
16,Discover the possibilities of mobile,,"
Let’s face it, we’re all addicted to our mobiles. Understand how to use the mobile web and apps to reach just the right customers. 
",,x,,,,,,,,,,,,,,,,,,,,,,,
17,Make mobile work for you,,"
We’ll show you how to reach more customers through mobile: from SEO to mobile search, from display ads to video. 
",,x,,,,,,,,x,x,x,x,x,,,,,,,,,,,
18,Advertise on other websites,,"
Get to know display advertising: what the ads are, where they show up and how advertisers can control who's seeing them.
",,x,,,,x,x,,,,,,,,,,,,,,,,,,
19,Deep dive into display advertising,,"
Everything you need to create clever display campaigns that get you noticed and attract more customers through your doors. 
",,x,,,,x,x,,,,,,,,,,,,,,,,,,
20,Expand internationally ,,"
Everything you need to know about going global, from research to translation to selling across borders online.
",,x,,,,,,,,,,,,,,,,,,,,,,,
21,Make the most of video,,"
Understand the powerful possibilities of using video to reach and interact with customers and grow your business.
",,x,,,,,,x,,,,,,,,,,,,,,,,,
22,Build your online shop,,"
Everything you need to know about e-commerce and what it can do for your business. 
",,x,,,,,,,,,,,,,,,,,,,,,,,
23,Sell more online,,"
Now that you know the basics, let’s get fancy. Learn to optimise, promote and retarget your online shop.
",,x,,,,,,,,,,,,,,,,,,,,,,,